﻿  CTriangle.cpp
  PillarEngine.vcxproj -> C:\Users\Neo\documents\visual studio 2015\Projects\PillarEngine\Debug\PillarEngine.exe
  PillarEngine.vcxproj -> C:\Users\Neo\documents\visual studio 2015\Projects\PillarEngine\Debug\PillarEngine.pdb (Partial PDB)
